<svg width="695" height="1024" viewBox="0 0 695 1024" fill="none" xmlns="http://www.w3.org/2000/svg">
<path d="M0.00012207 0V1024H619C619 1024 816.5 206 573 476C329.5 746 0.00012207 0 0.00012207 0Z" fill="#FFD975"/>
</svg>
